{
  "project_info": {
    "project_number": "331436270934",
    "firebase_url": "https://hebrewtrainer.firebaseio.com",
    "project_id": "hebrewtrainer",
    "storage_bucket": "hebrewtrainer.appspot.com"
  },
  "client": [
    {
      "client_info": {
        "mobilesdk_app_id": "1:331436270934:android:a7594672f02443e3",
        "android_client_info": {
          "package_name": "com.hebrewtrainer"
        }
      },
      "oauth_client": [
        {
          "client_id": "331436270934-j5d2kvh8onafvnrrt39l39ucrdc3l799.apps.googleusercontent.com",
          "client_type": 1,
          "android_info": {
            "package_name": "com.hebrewtrainer",
            "certificate_hash": "841c31d5310a81858f8c5f11ecfc6478d4b887af"
          }
        },
        {
          "client_id": "331436270934-tp9kr1uvn8c975k00e57s5cr0n0nlrui.apps.googleusercontent.com",
          "client_type": 3
        }
      ],
      "api_key": [
        {
          "current_key": "AIzaSyBHEZCOxP58PHKDMUGXeGkMVl8KLU2fvhA"
        }
      ],
      "services": {
        "analytics_service": {
          "status": 1
        },
        "appinvite_service": {
          "status": 2,
          "other_platform_oauth_client": [
            {
              "client_id": "331436270934-tp9kr1uvn8c975k00e57s5cr0n0nlrui.apps.googleusercontent.com",
              "client_type": 3
            }
          ]
        },
        "ads_service": {
          "status": 2
        }
      }
    }
  ],
  "configuration_version": "1"
}